Extract or subset coordinates — coo_extract • Momocs2
…
#> [103,]  222  108
#> [104,]  221  102
#> [105,]  221   97
#> [106,]  221   91
#> [107,]  221   85
#> [108,]  221   79
#> [109,]  221   73
#> [110,]  222   67
#> [111,]  224   62
#> [112,]  230   60
#> [113,]  232   55
#> [114,]  230   49
#> [115,]  224   45
coo_head(bot, 20)
#> # A tibble: 40 × 3
#>    coo            type   dummy
#>    <named list>   <fct>  <fct>
#>  1 <dbl [20 × 2]> whisky a    
#>  2 <dbl [20 × 2]> whisky a    
#>  3 <dbl [20 × 2]> whisky a    
#>  4 <dbl [20 × 2]> whisky a    
#>  5 <dbl [20 × 2]> whisky a    
#>  6 <dbl [20 × 2]> whisky a    
#>  7 <dbl [20 × 2]> whisky a    
#>  8 <dbl [20 × 2]> whisky a    
#>  9 <dbl [20 × 2]> whisky a    
#> 10 <dbl [20 × 2]> whisky a    
#> # ℹ 30 more rows
…
