Slide coordinates along outline — coo_slide • Momocs2
…
# Slide to first landmark
coo_slide_ldk(hearts, ldk_id = 1)
#> ✔ Updated landmarks in 'coo_ldk'
#> # A tibble: 40 × 4
#>    img          coo      coo_ldk      author
#>    <path>       <out>    <named list> <fct> 
#>  1 viodnwqb.jpg (80 x 2) <dbl [4]>    ced   
#>  2 ohmlpeqy.jpg (80 x 2) <dbl [4]>    ced   
#>  3 qleyuxan.jpg (80 x 2) <dbl [4]>    ced   
#>  4 esjuanpl.jpg (80 x 2) <dbl [4]>    ced   
#>  5 zjhldwkx.jpg (80 x 2) <dbl [4]>    ced   
#>  6 jgiurtke.jpg (80 x 2) <dbl [4]>    jeya  
#>  7 ctigzqxl.jpg (80 x 2) <dbl [4]>    jeya  
#>  8 azvxubnr.jpg (80 x 2) <dbl [4]>    jeya  
#>  9 pydkrcxh.jpg (80 x 2) <dbl [4]>    jeya  
#> 10 zxitnlfc.jpg (80 x 2) <dbl [4]>    jeya  
#> # ℹ 30 more rows
…
