Translate coordinates — coo_translate • Momocs2
…
#> [109,]  274   81
#> [110,]  277   75
#> [111,]  270   72
#> [112,]  263   70
#> [113,]  257   68
#> [114,]  250   66
#> [115,]  244   66
#> [116,]  237   65
#> [117,]  230   65
#> [118,]  224   66
#> [119,]  217   68
#> [120,]  211   69
#> 
coo_translate(bot, x_val = 50, y_val = 50)
#> # A tibble: 40 × 3
#>    coo             type   dummy
#>    <named list>    <fct>  <fct>
#>  1 <dbl [138 × 2]> whisky a    
#>  2 <dbl [168 × 2]> whisky a    
#>  3 <dbl [189 × 2]> whisky a    
#>  4 <dbl [129 × 2]> whisky a    
#>  5 <dbl [152 × 2]> whisky a    
#>  6 <dbl [161 × 2]> whisky a    
#>  7 <dbl [124 × 2]> whisky a    
#>  8 <dbl [126 × 2]> whisky a    
#>  9 <dbl [183 × 2]> whisky a    
#> 10 <dbl [193 × 2]> whisky a    
#> # ℹ 30 more rows
…
