…
#> [113,]  51.575  -57.65
#> [114,]  44.575  -59.65
#> [115,]  38.575  -59.65
#> [116,]  31.575  -60.65
#> [117,]  24.575  -60.65
#> [118,]  18.575  -59.65
#> [119,]  11.575  -57.65
#> [120,]   5.575  -56.65
#> attr(,"scaled:center")
#> [1] 195.425 125.650
#> 
#> attr(,"class")
#> [1] "coo"  "list"
coo_center(bot)
#> # A tibble: 40 × 3
#>    coo     type   dummy
#>    <out>   <fct>  <fct>
#>  1 (138·2) whisky a    
#>  2 (168·2) whisky a    
#>  3 (189·2) whisky a    
#>  4 (129·2) whisky a    
#>  5 (152·2) whisky a    
#>  6 (161·2) whisky a    
#>  7 (124·2) whisky a    
#>  8 (126·2) whisky a    
#>  9 (183·2) whisky a    
#> 10 (193·2) whisky a    
#> # ℹ 30 more rows
```
