Sample at regular angles from centroid — coo_sample_regular_radius • Momocs2
…
# Works on tibbles
coo_sample_regular_radius(bot, n = 128)
#> # A tibble: 40 × 3
#>    coo       type   dummy
#>    <out>     <fct>  <fct>
#>  1 (128 x 2) whisky a    
#>  2 (128 x 2) whisky a    
#>  3 (128 x 2) whisky a    
#>  4 (128 x 2) whisky a    
#>  5 (128 x 2) whisky a    
#>  6 (128 x 2) whisky a    
#>  7 (128 x 2) whisky a    
#>  8 (128 x 2) whisky a    
#>  9 (128 x 2) whisky a    
#> 10 (128 x 2) whisky a    
#> # ℹ 30 more rows
…
