Rescale by a factor — coo_rescale • Momocs2
…
# For tibbles - use stored scaling factors
bot$scale_factor <- rep(c(1, 2), length.out = nrow(bot))
bot %>% coo_rescale(scale = scale_factor)
#> # A tibble: 40 × 4
#>    coo       type   dummy scale_factor
#>    <out>     <fct>  <fct>        <dbl>
#>  1 (138 x 2) whisky a                1
#>  2 (168 x 2) whisky a                2
#>  3 (189 x 2) whisky a                1
#>  4 (129 x 2) whisky a                2
#>  5 (152 x 2) whisky a                1
#>  6 (161 x 2) whisky a                2
#>  7 (124 x 2) whisky a                1
#>  8 (126 x 2) whisky a                2
#>  9 (183 x 2) whisky a                1
#> 10 (193 x 2) whisky a                2
#> # ℹ 30 more rows
…
