Flip coordinates — coo_flip • Momocs2
…
# Flip across custom horizontal line
coo_flip_y(bot, yintercept = 50)
#> # A tibble: 40 × 5
#>    id           coo       type   fake  price
#>    <chr>        <out>     <fct>  <fct> <dbl>
#>  1 brahma       (138 x 2) whisky a       3  
#>  2 caney        (168 x 2) whisky a       1.2
#>  3 chimay       (189 x 2) whisky a       3.8
#>  4 corona       (129 x 2) whisky a       2.6
#>  5 deusventrue  (152 x 2) whisky a       1.1
#>  6 duvel        (161 x 2) whisky a       3.1
#>  7 franziskaner (124 x 2) whisky a       2.6
#>  8 grimbergen   (126 x 2) whisky a       2.9
#>  9 guiness      (183 x 2) whisky a       1.2
#> 10 hoegardeen   (193 x 2) whisky a       3.6
#> # ℹ 30 more rows
…
