Reverse point order — coo_reverse • Momocs2
…
#> [109,]  189   44
#> [110,]  187   37
#> [111,]  183   30
#> [112,]  179   24
#> [113,]  184   20
#> [114,]  190   22
#> [115,]  194   29
#> [116,]  196   36
#> [117,]  197   42
#> [118,]  199   49
#> [119,]  200   55
#> [120,]  200   62
#> 
coo_reverse(bot)
#> # A tibble: 40 × 3
#>    coo             type   dummy
#>    <named list>    <fct>  <fct>
#>  1 <dbl [138 × 2]> whisky a    
#>  2 <dbl [168 × 2]> whisky a    
#>  3 <dbl [189 × 2]> whisky a    
#>  4 <dbl [129 × 2]> whisky a    
#>  5 <dbl [152 × 2]> whisky a    
#>  6 <dbl [161 × 2]> whisky a    
#>  7 <dbl [124 × 2]> whisky a    
#>  8 <dbl [126 × 2]> whisky a    
#>  9 <dbl [183 × 2]> whisky a    
#> 10 <dbl [193 × 2]> whisky a    
#> # ℹ 30 more rows
…
