Sample coordinates — coo_sample • Momocs2
…
# Resample with landmarks preserved
coo_sample(hearts, n = 200)
#> ✔ Updated landmarks in 'coo_ldk'
#> # A tibble: 40 × 4
#>    img          coo       coo_ldk      author
#>    <path>       <out>     <named list> <fct> 
#>  1 viodnwqb.jpg (200 x 2) <dbl [4]>    ced   
#>  2 ohmlpeqy.jpg (200 x 2) <dbl [4]>    ced   
#>  3 qleyuxan.jpg (200 x 2) <dbl [4]>    ced   
#>  4 esjuanpl.jpg (200 x 2) <dbl [4]>    ced   
#>  5 zjhldwkx.jpg (200 x 2) <dbl [4]>    ced   
#>  6 jgiurtke.jpg (200 x 2) <dbl [4]>    jeya  
#>  7 ctigzqxl.jpg (200 x 2) <dbl [4]>    jeya  
#>  8 azvxubnr.jpg (200 x 2) <dbl [4]>    jeya  
#>  9 pydkrcxh.jpg (200 x 2) <dbl [4]>    jeya  
#> 10 zxitnlfc.jpg (200 x 2) <dbl [4]>    jeya  
#> # ℹ 30 more rows
…
