Ensure positive (counter-clockwise) direction — coo_direction • Momocs2
…
#> [110,]  222   67
#> [111,]  224   62
#> [112,]  230   60
#> [113,]  232   55
#> [114,]  230   49
#> [115,]  224   45
#> [116,]  219   45
#> [117,]  213   47
#> [118,]  208   53
#> [119,]  204   59
#> [120,]  202   65
#> attr(,"class")
#> [1] "coo"    "matrix" "array" 
bot %>% coo_direction_positive()
#> # A tibble: 40 × 3
#>    coo     type   dummy
#>    <out>   <fct>  <fct>
#>  1 (138·2) whisky a    
#>  2 (168·2) whisky a    
#>  3 (189·2) whisky a    
#>  4 (129·2) whisky a    
#>  5 (152·2) whisky a    
#>  6 (161·2) whisky a    
#>  7 (124·2) whisky a    
#>  8 (126·2) whisky a    
#>  9 (183·2) whisky a    
#> 10 (193·2) whisky a    
#> # ℹ 30 more rows
…
