Filter points by direction from centroid — coo_direction_filter • Momocs2
…
# Keep left half with landmarks
coo_left(hearts)
#> ✔ Updated landmarks in 'coo_ldk'
#> # A tibble: 40 × 4
#>    img          coo      coo_ldk      author
#>    <path>       <out>    <named list> <fct> 
#>  1 viodnwqb.jpg (40 x 2) <dbl [4]>    ced   
#>  2 ohmlpeqy.jpg (40 x 2) <dbl [4]>    ced   
#>  3 qleyuxan.jpg (39 x 2) <dbl [4]>    ced   
#>  4 esjuanpl.jpg (40 x 2) <dbl [4]>    ced   
#>  5 zjhldwkx.jpg (40 x 2) <dbl [4]>    ced   
#>  6 jgiurtke.jpg (39 x 2) <dbl [4]>    jeya  
#>  7 ctigzqxl.jpg (40 x 2) <dbl [4]>    jeya  
#>  8 azvxubnr.jpg (40 x 2) <dbl [4]>    jeya  
#>  9 pydkrcxh.jpg (39 x 2) <dbl [4]>    jeya  
#> 10 zxitnlfc.jpg (39 x 2) <dbl [4]>    jeya  
#> # ℹ 30 more rows
…
