Elliptical Fourier transforms — efourier • Momocs2
…
    Other morphometrics: 
dfourier(),
npoly(),
opoly()

    Examples

bot %>% pick() %>% efourier(4) %>% print() %>% efourier_i()
#> # A tibble: 1 x 16
#>      a1    a2    a3    a4    b1    b2    b3    b4    c1    c2    c3    c4    d1
#>   <dbl> <dbl> <dbl> <dbl> <dbl> <dbl> <dbl> <dbl> <dbl> <dbl> <dbl> <dbl> <dbl>
#> 1 -134.  8.42  20.8 -2.59 -19.3 -30.3  8.69  4.37  57.0 -3.16 -15.7  5.58 -441.
#> # … with 3 more variables: d2 <dbl>, d3 <dbl>, d4 <dbl>
#> ❯coe_single with 16 coefficients
#> # A tibble: 120 x 2
#>        x     y
#>    <dbl> <dbl>
#>  1     0     0
#>  2     0     0
#>  3     0     0
#>  4     0     0
#>  5     0     0
#>  6     0     0
#>  7     0     0
#>  8     0     0
#>  9     0     0
#> 10     0     0
#> # … with 110 more rows
…
