Identify coo columns in a tibble — get_coo_cols • Momocs2
…
# But can specify explicitly
get_coo_cols(olea, .cols = "VD")
#> [1] "VD"
# [1] "VD"

# Use with morphometric functions
olea %>%
  opoly(.cols = get_coo_cols(olea, "VD"))
#> Using degree = 5 (default)
#> # A tibble: 90 × 6
#>    id    VD        VL        var   status VD_coe 
#>    <chr> <cur>     <cur>     <fct> <fct>  <opoly>
#>  1 Ag1   (99 x 2)  (96 x 2)  Aglan cult   6 op   
#>  2 Ag2   (95 x 2)  (104 x 2) Aglan cult   6 op   
#>  3 Ag3   (101 x 2) (94 x 2)  Aglan cult   6 op   
#>  4 Ag4   (100 x 2) (93 x 2)  Aglan cult   6 op   
#>  5 Ag5   (102 x 2) (108 x 2) Aglan cult   6 op   
#>  6 Ag6   (98 x 2)  (93 x 2)  Aglan cult   6 op   
#>  7 Ag7   (100 x 2) (107 x 2) Aglan cult   6 op   
#>  8 Ag8   (100 x 2) (93 x 2)  Aglan cult   6 op   
#>  9 Ag9   (99 x 2)  (94 x 2)  Aglan cult   6 op   
#> 10 Ag10  (100 x 2) (95 x 2)  Aglan cult   6 op   
#> # ℹ 80 more rows
…
