…
## See also

[`get_convexity()`](https://momx.github.io/Momocs2/reference/get_convexity.md),
[`get_chull()`](https://momx.github.io/Momocs2/reference/get_chull.md)

## Examples

``` r
get_solidity(shapes$cat)
#> [1] 0.787616

# Use in measure()
bot %>% measure("solidity")
#> # A tibble: 40 × 6
#>    id           coo       type   fake  price coo_solidity
#>    <chr>        <out>     <fct>  <fct> <dbl>        <dbl>
#>  1 brahma       (138 x 2) whisky a       3          0.893
#>  2 caney        (168 x 2) whisky a       1.2        0.920
#>  3 chimay       (189 x 2) whisky a       3.8        0.928
#>  4 corona       (129 x 2) whisky a       2.6        0.944
#>  5 deusventrue  (152 x 2) whisky a       1.1        0.875
#>  6 duvel        (161 x 2) whisky a       3.1        0.954
#>  7 franziskaner (124 x 2) whisky a       2.6        0.949
#>  8 grimbergen   (126 x 2) whisky a       2.9        0.922
#>  9 guiness      (183 x 2) whisky a       1.2        0.916
#> 10 hoegardeen   (193 x 2) whisky a       3.6        0.933
#> # ℹ 30 more rows
```
