…
# But can specify explicitly
get_coe_cols(olea_poly, .cols = "VD_coe")
#> [1] "VD_coe"
# [1] "VD_coe"

# Use with inverse transforms
olea %>%
  opoly() %>%
  opoly_i(.cols = get_coe_cols(., "VD_coe"))
#> Processing coo column(s): VD, VL
#> Using degree = 5 (default)
#> # A tibble: 90 × 8
#>    id    VD        VL        var   status VD_coe  VL_coe  VD_coe_i 
#>    <chr> <cur>     <cur>     <fct> <fct>  <opoly> <opoly> <opn>    
#>  1 Ag1   (99 x 2)  (96 x 2)  Aglan cult   6 op    6 op    (120 x 2)
#>  2 Ag2   (95 x 2)  (104 x 2) Aglan cult   6 op    6 op    (120 x 2)
#>  3 Ag3   (101 x 2) (94 x 2)  Aglan cult   6 op    6 op    (120 x 2)
#>  4 Ag4   (100 x 2) (93 x 2)  Aglan cult   6 op    6 op    (120 x 2)
#>  5 Ag5   (102 x 2) (108 x 2) Aglan cult   6 op    6 op    (120 x 2)
#>  6 Ag6   (98 x 2)  (93 x 2)  Aglan cult   6 op    6 op    (120 x 2)
#>  7 Ag7   (100 x 2) (107 x 2) Aglan cult   6 op    6 op    (120 x 2)
#>  8 Ag8   (100 x 2) (93 x 2)  Aglan cult   6 op    6 op    (120 x 2)
#>  9 Ag9   (99 x 2)  (94 x 2)  Aglan cult   6 op    6 op    (120 x 2)
#> 10 Ag10  (100 x 2) (95 x 2)  Aglan cult   6 op    6 op    (120 x 2)
#> # ℹ 80 more rows
```
