…
Note: `get_calliper_ids()` returns a vector, not a scalar, so cannot be
used with
[`measure()`](https://momx.github.io/Momocs2/reference/measure.md).

## Examples

``` r
get_calliper(shapes$cat)
#> [1] 229.9761
get_calliper_ids(shapes$cat)
#> [1] 39 80

# Use in measure()
bot %>% measure("calliper")
#> # A tibble: 40 × 4
#>    coo     type   dummy coo_calliper
#>    <out>   <fct>  <fct>        <dbl>
#>  1 (138·2) whisky a            1088.
#>  2 (168·2) whisky a             994.
#>  3 (189·2) whisky a             645.
#>  4 (129·2) whisky a             808.
#>  5 (152·2) whisky a             888.
#>  6 (161·2) whisky a             609.
#>  7 (124·2) whisky a             865.
#>  8 (126·2) whisky a             767.
#>  9 (183·2) whisky a             744.
#> 10 (193·2) whisky a            1048.
#> # ℹ 30 more rows
```
