Get rugosity — get_rugosity • Momocs2
…
    See also

    get_convexity(), get_chull()

    Examples

get_rugosity(shapes$cat)
#> [1] 1.368755

# Use in measure()
bot %>% measure("rugosity")
#> # A tibble: 40 × 6
#>    id           coo       type   fake  price coo_rugosity
#>    <chr>        <out>     <fct>  <fct> <dbl>        <dbl>
#>  1 brahma       (138 x 2) whisky a       3           1.01
#>  2 caney        (168 x 2) whisky a       1.2         1.01
#>  3 chimay       (189 x 2) whisky a       3.8         1.02
#>  4 corona       (129 x 2) whisky a       2.6         1.01
#>  5 deusventrue  (152 x 2) whisky a       1.1         1.01
#>  6 duvel        (161 x 2) whisky a       3.1         1.01
#>  7 franziskaner (124 x 2) whisky a       2.6         1.00
#>  8 grimbergen   (126 x 2) whisky a       2.9         1.02
#>  9 guiness      (183 x 2) whisky a       1.2         1.01
#> 10 hoegardeen   (193 x 2) whisky a       3.6         1.01
#> # ℹ 30 more rows
…
