…
## See also

[`get_circularity()`](https://momx.github.io/Momocs2/reference/get_circularity.md),
[`get_rectangularity()`](https://momx.github.io/Momocs2/reference/get_rectangularity.md)

## Examples

``` r
get_compactness(shapes$cat)
#> [1] 0.5346923

# Use in measure()
bot %>% measure("compactness")
#> # A tibble: 40 × 4
#>    coo     type   dummy coo_compactness
#>    <out>   <fct>  <fct>           <dbl>
#>  1 (138·2) whisky a               0.762
#>  2 (168·2) whisky a               0.775
#>  3 (189·2) whisky a               0.765
#>  4 (129·2) whisky a               0.793
#>  5 (152·2) whisky a               0.652
#>  6 (161·2) whisky a               0.784
#>  7 (124·2) whisky a               0.808
#>  8 (126·2) whisky a               0.766
#>  9 (183·2) whisky a               0.763
#> 10 (193·2) whisky a               0.785
#> # ℹ 30 more rows
```
