…
## See also

[`get_convexity()`](https://momx.github.io/Momocs2/reference/get_convexity.md),
[`get_chull()`](https://momx.github.io/Momocs2/reference/get_chull.md)

## Examples

``` r
get_rugosity(shapes$cat)
#> [1] 1.368755

# Use in measure()
bot %>% measure("rugosity")
#> # A tibble: 40 × 4
#>    coo       type   dummy coo_rugosity
#>    <out>     <fct>  <fct>        <dbl>
#>  1 (138 x 2) whisky a             1.01
#>  2 (168 x 2) whisky a             1.01
#>  3 (189 x 2) whisky a             1.02
#>  4 (129 x 2) whisky a             1.01
#>  5 (152 x 2) whisky a             1.01
#>  6 (161 x 2) whisky a             1.01
#>  7 (124 x 2) whisky a             1.00
#>  8 (126 x 2) whisky a             1.02
#>  9 (183 x 2) whisky a             1.01
#> 10 (193 x 2) whisky a             1.01
#> # ℹ 30 more rows
```
