…
``` r
get_area(shapes$cat)
#> [1] 14125.5
get_area(shapes)
#> [1] 14125.5 14907.5 24277.0 16905.5

# Extract from tibble
areas <- get_area(bot)

# Add to tibble
bot$area <- get_area(bot)

# Or use measure() for convenience
bot %>% measure("area")
#> # A tibble: 40 × 7
#>    id           coo       type   fake  price    area coo_area
#>    <chr>        <out>     <fct>  <fct> <dbl>   <dbl>    <dbl>
#>  1 brahma       (138 x 2) whisky a       3   234515   234515 
#>  2 caney        (168 x 2) whisky a       1.2 201056.  201056.
#>  3 chimay       (189 x 2) whisky a       3.8 119460.  119460.
#>  4 corona       (129 x 2) whisky a       2.6 119568.  119568.
#>  5 deusventrue  (152 x 2) whisky a       1.1 165736.  165736.
#>  6 duvel        (161 x 2) whisky a       3.1 114015   114015 
#>  7 franziskaner (124 x 2) whisky a       2.6 149503   149503 
#>  8 grimbergen   (126 x 2) whisky a       2.9 147642.  147642.
#>  9 guiness      (183 x 2) whisky a       1.2 130178.  130178.
#> 10 hoegardeen   (193 x 2) whisky a       3.6 219548   219548 
#> # ℹ 30 more rows
```
