Get solidity — get_solidity • Momocs2
…
    Solidity = Area(shape) / Area(convex_hull).
Value of 1 for convex shapes. Lower values indicate concavities or holes.

    See also

    get_convexity(), get_chull()

    Examples

get_solidity(shapes$cat)
#> [1] 0.787616

# Use in measure()
bot %>% measure("solidity")
#> # A tibble: 40 × 4
#>    coo     type   dummy coo_solidity
#>    <out>   <fct>  <fct>        <dbl>
#>  1 (138·2) whisky a            0.893
#>  2 (168·2) whisky a            0.920
#>  3 (189·2) whisky a            0.928
#>  4 (129·2) whisky a            0.944
#>  5 (152·2) whisky a            0.875
#>  6 (161·2) whisky a            0.954
#>  7 (124·2) whisky a            0.949
#>  8 (126·2) whisky a            0.922
#>  9 (183·2) whisky a            0.916
#> 10 (193·2) whisky a            0.933
#> # ℹ 30 more rows
…
