List columns verbs — list_columns • Momocs2
…
coe_names: return names of coe columns

    Examples

bot %>% coo_nb()
#> [1] 1
bot %>% coo_names()
#> [1] "coo"
bot %>% coo_present(coo)
#> [1] TRUE
bot %>% coo_present(foo)  # non existing column
#> [1] FALSE
bot %>% coo_only()
#> # A tibble: 40 x 1
#>    coo                   
#>    <list<coo_single[,2]>>
#>  1 <tibble [138 × 2]>    
#>  2 <tibble [168 × 2]>    
#>  3 <tibble [189 × 2]>    
#>  4 <tibble [129 × 2]>    
#>  5 <tibble [152 × 2]>    
#>  6 <tibble [161 × 2]>    
#>  7 <tibble [124 × 2]>    
#>  8 <tibble [126 × 2]>    
#>  9 <tibble [183 × 2]>    
#> 10 <tibble [193 × 2]>    
#> # … with 30 more rows
#> ❯mom_tbl
bot %>% coo_drop()
#> # A tibble: 40 x 2
#>    type   fake 
#>    <fct>  <fct>
#>  1 whisky a    
#>  2 whisky a    
#>  3 whisky a    
#>  4 whisky a    
#>  5 whisky a    
#>  6 whisky a    
#>  7 whisky a    
#>  8 whisky a    
#>  9 whisky a    
#> 10 whisky a    
#> # … with 30 more rows
#> ❯mom_tbl
bot$coo2 <- bot$coo
bot %>% coo_select(coo2)
#> # A tibble: 40 x 3
#>    coo2                   type   fake 
#>  * <list<coo_single[,2]>> <fct>  <fct>
#>  1 <tibble [138 × 2]>     whisky a    
#>  2 <tibble [168 × 2]>     whisky a    
#>  3 <tibble [189 × 2]>     whisky a    
#>  4 <tibble [129 × 2]>     whisky a    
#>  5 <tibble [152 × 2]>     whisky a    
#>  6 <tibble [161 × 2]>     whisky a    
#>  7 <tibble [124 × 2]>     whisky a    
#>  8 <tibble [126 × 2]>     whisky a    
#>  9 <tibble [183 × 2]>     whisky a    
#> 10 <tibble [193 × 2]>     whisky a    
#> # … with 30 more rows
…
