…
## Examples

``` r
measure_area(shapes$cat)
#> [1] 14125.5
measure_area(shapes)
#> # Measurements (n = 4 )
#>     cat     dog   heart   leaf2 
#> 14125.5 14907.5 24277.0 16905.5 
measure_area(bot)
#> # A tibble: 40 × 4
#>    coo             type   dummy coo_area
#>    <out>           <fct>  <fct>    <dbl>
#>  1 <out [138 × 2]> whisky a      234515 
#>  2 <out [168 × 2]> whisky a      201056.
#>  3 <out [189 × 2]> whisky a      119460.
#>  4 <out [129 × 2]> whisky a      119568.
#>  5 <out [152 × 2]> whisky a      165736.
#>  6 <out [161 × 2]> whisky a      114015 
#>  7 <out [124 × 2]> whisky a      149503 
#>  8 <out [126 × 2]> whisky a      147642.
#>  9 <out [183 × 2]> whisky a      130178.
#> 10 <out [193 × 2]> whisky a      219548 
#> # ℹ 30 more rows
measure_area(bot, .name = "area")
#> # A tibble: 40 × 4
#>    coo             type   dummy    area
#>    <out>           <fct>  <fct>   <dbl>
#>  1 <out [138 × 2]> whisky a     234515 
#>  2 <out [168 × 2]> whisky a     201056.
#>  3 <out [189 × 2]> whisky a     119460.
#>  4 <out [129 × 2]> whisky a     119568.
#>  5 <out [152 × 2]> whisky a     165736.
#>  6 <out [161 × 2]> whisky a     114015 
#>  7 <out [124 × 2]> whisky a     149503 
#>  8 <out [126 × 2]> whisky a     147642.
#>  9 <out [183 × 2]> whisky a     130178.
#> 10 <out [193 × 2]> whisky a     219548 
#> # ℹ 30 more rows
measure_area(bot, .cols = "coo", .name = "my_area")
#> # A tibble: 40 × 4
#>    coo             type   dummy my_area
#>    <out>           <fct>  <fct>   <dbl>
#>  1 <out [138 × 2]> whisky a     234515 
#>  2 <out [168 × 2]> whisky a     201056.
#>  3 <out [189 × 2]> whisky a     119460.
#>  4 <out [129 × 2]> whisky a     119568.
#>  5 <out [152 × 2]> whisky a     165736.
#>  6 <out [161 × 2]> whisky a     114015 
#>  7 <out [124 × 2]> whisky a     149503 
#>  8 <out [126 × 2]> whisky a     147642.
#>  9 <out [183 × 2]> whisky a     130178.
#> 10 <out [193 × 2]> whisky a     219548 
#> # ℹ 30 more rows
```
