…
## Examples

``` r
measure_centroid_size(shapes$cat)
#> [1] 847.9577
measure_centroid_size(shapes)
#> # Measurements (n = 4 )
#>      cat      dog    heart    leaf2 
#> 847.9577 950.7276 978.0189 814.8906 
measure_centroid_size(bot)
#> # A tibble: 40 × 4
#>    coo             type   dummy coo_centroid_size
#>    <out>           <fct>  <fct>             <dbl>
#>  1 <out [138 × 2]> whisky a                 4277.
#>  2 <out [168 × 2]> whisky a                 4312.
#>  3 <out [189 × 2]> whisky a                 3193.
#>  4 <out [129 × 2]> whisky a                 3035.
#>  5 <out [152 × 2]> whisky a                 3701.
#>  6 <out [161 × 2]> whisky a                 2796.
#>  7 <out [124 × 2]> whisky a                 3225.
#>  8 <out [126 × 2]> whisky a                 3011.
#>  9 <out [183 × 2]> whisky a                 3472.
#> 10 <out [193 × 2]> whisky a                 4907.
#> # ℹ 30 more rows
measure_centroid_size(bot, .name = "CS")
#> # A tibble: 40 × 4
#>    coo             type   dummy    CS
#>    <out>           <fct>  <fct> <dbl>
#>  1 <out [138 × 2]> whisky a     4277.
#>  2 <out [168 × 2]> whisky a     4312.
#>  3 <out [189 × 2]> whisky a     3193.
#>  4 <out [129 × 2]> whisky a     3035.
#>  5 <out [152 × 2]> whisky a     3701.
#>  6 <out [161 × 2]> whisky a     2796.
#>  7 <out [124 × 2]> whisky a     3225.
#>  8 <out [126 × 2]> whisky a     3011.
#>  9 <out [183 × 2]> whisky a     3472.
#> 10 <out [193 × 2]> whisky a     4907.
#> # ℹ 30 more rows
```
