…
## Examples

``` r
measure_centroid_size_norm(shapes$cat)
#> [1] 77.4076
measure_centroid_size_norm(shapes)
#> # Measurements (n = 4 )
#>      cat      dog    heart    leaf2 
#> 77.40760 86.78916 89.28050 74.38899 
measure_centroid_size_norm(bot)
#> # A tibble: 40 × 4
#>    coo             type   dummy coo_centroid_size_norm
#>    <out>           <fct>  <fct>                  <dbl>
#>  1 <out [138 × 2]> whisky a                       364.
#>  2 <out [168 × 2]> whisky a                       333.
#>  3 <out [189 × 2]> whisky a                       232.
#>  4 <out [129 × 2]> whisky a                       267.
#>  5 <out [152 × 2]> whisky a                       300.
#>  6 <out [161 × 2]> whisky a                       220.
#>  7 <out [124 × 2]> whisky a                       290.
#>  8 <out [126 × 2]> whisky a                       268.
#>  9 <out [183 × 2]> whisky a                       257.
#> 10 <out [193 × 2]> whisky a                       353.
#> # ℹ 30 more rows
measure_centroid_size_norm(bot, .name = "CS_norm")
#> # A tibble: 40 × 4
#>    coo             type   dummy CS_norm
#>    <out>           <fct>  <fct>   <dbl>
#>  1 <out [138 × 2]> whisky a        364.
#>  2 <out [168 × 2]> whisky a        333.
#>  3 <out [189 × 2]> whisky a        232.
#>  4 <out [129 × 2]> whisky a        267.
#>  5 <out [152 × 2]> whisky a        300.
#>  6 <out [161 × 2]> whisky a        220.
#>  7 <out [124 × 2]> whisky a        290.
#>  8 <out [126 × 2]> whisky a        268.
#>  9 <out [183 × 2]> whisky a        257.
#> 10 <out [193 × 2]> whisky a        353.
#> # ℹ 30 more rows
```
