…
## Examples

``` r
measure_perim(shapes$cat)
#> [1] 750.7288
measure_perim(shapes)
#> # Measurements (n = 4 )
#>      cat      dog    heart    leaf2 
#> 750.7288 827.6342 640.2559 831.2915 
measure_perim(bot)
#> # A tibble: 40 × 4
#>    coo             type   dummy coo_perim
#>    <out>           <fct>  <fct>     <dbl>
#>  1 <out [138 × 2]> whisky a         2514.
#>  2 <out [168 × 2]> whisky a         2289.
#>  3 <out [189 × 2]> whisky a         1593.
#>  4 <out [129 × 2]> whisky a         1838.
#>  5 <out [152 × 2]> whisky a         2087.
#>  6 <out [161 × 2]> whisky a         1509.
#>  7 <out [124 × 2]> whisky a         1985.
#>  8 <out [126 × 2]> whisky a         1848.
#>  9 <out [183 × 2]> whisky a         1767.
#> 10 <out [193 × 2]> whisky a         2424.
#> # ℹ 30 more rows
measure_perim(bot, .name = "perimeter")
#> # A tibble: 40 × 4
#>    coo             type   dummy perimeter
#>    <out>           <fct>  <fct>     <dbl>
#>  1 <out [138 × 2]> whisky a         2514.
#>  2 <out [168 × 2]> whisky a         2289.
#>  3 <out [189 × 2]> whisky a         1593.
#>  4 <out [129 × 2]> whisky a         1838.
#>  5 <out [152 × 2]> whisky a         2087.
#>  6 <out [161 × 2]> whisky a         1509.
#>  7 <out [124 × 2]> whisky a         1985.
#>  8 <out [126 × 2]> whisky a         1848.
#>  9 <out [183 × 2]> whisky a         1767.
#> 10 <out [193 × 2]> whisky a         2424.
#> # ℹ 30 more rows
```
