Measure shape properties — measure • Momocs2
…
"calliper" - maximum distance between points

To see all available measurements, use available_measures().

    See also

    available_measures() for list of measurements; get_* functions for extraction

    Examples

# Single measurement
bot %>% measure("area")
#> # A tibble: 40 × 4
#>    coo       type   dummy coo_area
#>    <out>     <fct>  <fct>    <dbl>
#>  1 (138 x 2) whisky a      234515 
#>  2 (168 x 2) whisky a      201056.
#>  3 (189 x 2) whisky a      119460.
#>  4 (129 x 2) whisky a      119568.
#>  5 (152 x 2) whisky a      165736.
#>  6 (161 x 2) whisky a      114015 
#>  7 (124 x 2) whisky a      149503 
#>  8 (126 x 2) whisky a      147642.
#>  9 (183 x 2) whisky a      130178.
#> 10 (193 x 2) whisky a      219548 
#> # ℹ 30 more rows

# Multiple measurements
bot %>% measure(c("area", "perim", "centroid_size"))
#> # A tibble: 40 × 6
#>    coo       type   dummy coo_area coo_perim coo_centroid_size
#>    <out>     <fct>  <fct>    <dbl>     <dbl>             <dbl>
#>  1 (138 x 2) whisky a      234515      2514.             4277.
#>  2 (168 x 2) whisky a      201056.     2289.             4312.
#>  3 (189 x 2) whisky a      119460.     1593.             3193.
#>  4 (129 x 2) whisky a      119568.     1838.             3035.
#>  5 (152 x 2) whisky a      165736.     2087.             3701.
#>  6 (161 x 2) whisky a      114015      1509.             2796.
#>  7 (124 x 2) whisky a      149503      1985.             3225.
#>  8 (126 x 2) whisky a      147642.     1848.             3011.
#>  9 (183 x 2) whisky a      130178.     1767.             3472.
#> 10 (193 x 2) whisky a      219548      2424.             4907.
#> # ℹ 30 more rows

# Custom prefix
bot %>% measure(c("area", "perim"), .prefix = "shape")
#> # A tibble: 40 × 5
#>    coo       type   dummy shape_area shape_perim
#>    <out>     <fct>  <fct>      <dbl>       <dbl>
#>  1 (138 x 2) whisky a        234515        2514.
#>  2 (168 x 2) whisky a        201056.       2289.
#>  3 (189 x 2) whisky a        119460.       1593.
#>  4 (129 x 2) whisky a        119568.       1838.
#>  5 (152 x 2) whisky a        165736.       2087.
#>  6 (161 x 2) whisky a        114015        1509.
#>  7 (124 x 2) whisky a        149503        1985.
#>  8 (126 x 2) whisky a        147642.       1848.
#>  9 (183 x 2) whisky a        130178.       1767.
#> 10 (193 x 2) whisky a        219548        2424.
#> # ℹ 30 more rows

# On specific column
bot %>% measure("area", .cols = coo)
#> # A tibble: 40 × 4
#>    coo       type   dummy coo_area
#>    <out>     <fct>  <fct>    <dbl>
#>  1 (138 x 2) whisky a      234515 
#>  2 (168 x 2) whisky a      201056.
#>  3 (189 x 2) whisky a      119460.
#>  4 (129 x 2) whisky a      119568.
#>  5 (152 x 2) whisky a      165736.
#>  6 (161 x 2) whisky a      114015 
#>  7 (124 x 2) whisky a      149503 
#>  8 (126 x 2) whisky a      147642.
#>  9 (183 x 2) whisky a      130178.
#> 10 (193 x 2) whisky a      219548 
#> # ℹ 30 more rows
…
