Principal component analysis — stat_pca • Momocs2
…
    Value

    object of class pca, a tibble::tibble with attributes

    References

    stats::prcomp

    Examples

(x <-  bot2 %>% efourier(4) %>% stat_pca())
#> ! describe_pca: 'center' was missing, set to TRUE
#> ! describe_pca: 'scale' was missing, set to TRUE
#> # A tibble: 40 x 19
#>    type  fake  coe      PC1     PC2    PC3    PC4      PC5     PC6     PC7
#>    <fct> <fct> <nam>  <dbl>   <dbl>  <dbl>  <dbl>    <dbl>   <dbl>   <dbl>
#>  1 whis… a     <coe… -1.29  -4.45    1.83   1.85   0.228    1.45   -0.811 
#>  2 whis… a     <coe… -1.47  -2.15   -0.887  1.17   0.276   -0.531   0.126 
#>  3 whis… a     <coe…  0.757  1.60   -0.438 -0.637  0.744    1.06   -0.374 
#>  4 whis… a     <coe…  1.12  -0.516  -0.902  1.83  -0.00625 -0.220  -0.176 
#>  5 whis… a     <coe… -2.50   0.0999 -3.53  -0.265  0.603    0.236  -0.334 
#>  6 whis… a     <coe… -1.46   2.15    1.34   0.622  1.21    -0.0776  0.309 
#>  7 whis… a     <coe…  0.356 -1.41    1.08   1.56  -0.263   -0.0261  0.268 
#>  8 whis… a     <coe…  0.961  0.128  -1.50  -0.787  1.03    -0.155  -0.0694
#>  9 whis… a     <coe…  1.79   0.376  -0.673 -1.19   0.378    0.341   0.201 
#> 10 whis… a     <coe… -0.976 -2.57   -1.58   0.455  0.391    0.575   0.0777
#> # … with 30 more rows, and 9 more variables: PC8 <dbl>, PC9 <dbl>, PC10 <dbl>,
#> #   PC11 <dbl>, PC12 <dbl>, PC13 <dbl>, PC14 <dbl>, PC15 <dbl>, PC16 <dbl>
…
